…
Data 
```

    ## # A tibble: 39,293 x 8
    ##       pidp h_age_dv h_payn_dv h_gor_dv      sex_dv ukborn plbornc placeBorn
    ##      <dbl>    <dbl>     <dbl> <chr>         <chr>   <dbl>   <dbl> <chr>    
    ##  1   22445       31     2000  London        female      1      -9 UK       
    ##  2   29925       39     1200  London        female      1      -9 UK       
    ##  3   76165       33     2200  West Midlands female      1      -9 UK       
    ##  4  223725       41       NA  South East    male        1      -9 UK       
    ##  5  280165       37     2263  South East    female      1      -9 UK       
    ##  6  333205       26     1550  West Midlands female      1      -9 UK       
    ##  7  665045       34      772. West Midlands male        1      -9 UK       
    ##  8  813285       46       NA  North West    male        1      -9 UK       
    ##  9 1587125       50       NA  North East    female     -9      -9 <NA>     
    ## 10 1697285       43     1171  East Midlands male        1      -9 UK       
    ## # … with 39,283 more rows
…
